Cross-Validation
…
background-image: url("img/the-office.jpeg")
class: middle

---

## Data

```r
office_ratings <- read_csv("data/office_ratings.csv")
office_ratings
```

```
## # A tibble: 188 × 6
##    season episode title             imdb_rating total_votes air_date  
##     <dbl>   <dbl> <chr>                   <dbl>       <dbl> <date>    
##  1      1       1 Pilot                     7.6        3706 2005-03-24
##  2      1       2 Diversity Day             8.3        3566 2005-03-29
##  3      1       3 Health Care               7.9        2983 2005-04-05
##  4      1       4 The Alliance              8.1        2886 2005-04-12
##  5      1       5 Basketball                8.4        3179 2005-04-19
##  6      1       6 Hot Girl                  7.8        2852 2005-04-26
##  7      2       1 The Dundies               8.7        3213 2005-09-20
##  8      2       2 Sexual Harassment         8.2        2736 2005-09-27
##  9      2       3 Office Olympics           8.4        2742 2005-10-04
## 10      2       4 The Fire                  8.4        2713 2005-10-11
## # … with 178 more rows
```
…
# Evaluate model

---

## Make predictions for training data

```r
office_train_pred <- predict(office_fit, office_train) %>%
  bind_cols(office_train %>% select(imdb_rating, title))
names(office_train_pred)[1] <- "Prediction"
office_train_pred
```

```
## # A tibble: 152 × 3
##    Prediction imdb_rating title            
##         <dbl>       <dbl> <chr>            
##  1       8.98         8.3 Diversity Day    
##  2       8.75         7.9 Health Care      
##  3       8.71         8.1 The Alliance     
##  4       8.83         8.4 Basketball       
##  5       8.70         7.8 Hot Girl         
##  6       8.62         8.2 Sexual Harassment
##  7       8.62         8.4 Office Olympics  
##  8       8.61         8.4 The Fire         
##  9       8.55         8.2 Halloween        
## 10       8.55         8.2 The Fight        
## # … with 142 more rows
```
…
---

## Make predictions for testing data

```r
office_test_pred <- predict(office_fit, office_test) %>%
  bind_cols(office_test %>% select(imdb_rating, title))
names(office_test_pred)[1] <- "Prediction"
office_test_pred
```

```
## # A tibble: 36 × 3
##    Prediction imdb_rating title             
##         <dbl>       <dbl> <chr>             
##  1       9.04         7.6 Pilot             
##  2       8.81         8.7 The Dundies       
##  3       8.58         8.6 The Client        
##  4       8.60         8.6 Booze Cruise      
##  5       8.49         8.4 Drug Testing      
##  6       8.39         8.5 Back from Vacation
##  7       8.54         8.8 Business School   
##  8       8.51         8.9 The Negotiation   
##  9       8.46         8.8 Safety Training   
## 10       8.33         8.5 Launch Party      
## # … with 26 more rows
```
…
