Predicion & Overfitting
…
---

## Predict probabilities on the testing dataset

```r
email_pred <- predict(email_fit, test_data, type = "response") %>%
  bind_cols(test_data %>% select(spam, time))

email_pred
```

```
## # A tibble: 785 × 3
##       ...1 spam  time               
##      <dbl> <fct> <dttm>             
##  1 0.00709 0     2012-01-01 09:55:06
##  2 0.00181 0     2012-01-01 11:38:32
##  3 0.0191  0     2012-01-01 21:42:16
##  4 0.00124 0     2012-01-02 07:12:51
##  5 0.0121  0     2012-01-02 08:45:36
##  6 0.170   0     2012-01-02 13:55:03
##  7 0.0410  0     2012-01-02 17:07:17
##  8 0.139   0     2012-01-02 21:41:35
##  9 0.0617  0     2012-01-03 08:02:35
## 10 0.0983  0     2012-01-03 03:14:51
## # … with 775 more rows
```

---

## A closer look at predictions

.pull-left-wide[

```r
email_pred %>%
  arrange(...1) %>%
  print(n = 10)
```

```
## # A tibble: 785 × 3
##        ...1 spam  time               
##       <dbl> <fct> <dttm>             
##  1 1.94e-10 0     2012-01-15 17:28:57
##  2 6.23e-10 0     2012-01-21 14:55:04
*##  3 1.79e- 6 0     2012-03-05 06:03:44
##  4 2.01e- 6 0     2012-02-03 09:00:38
##  5 2.92e- 6 0     2012-02-02 10:48:41
##  6 2.47e- 5 0     2012-03-08 19:17:44
*##  7 3.67e- 5 0     2012-03-31 07:13:25
##  8 4.09e- 5 0     2012-02-02 06:41:43
##  9 4.21e- 5 0     2012-03-03 14:36:35
## 10 4.66e- 5 0     2012-03-08 12:11:28
## # … with 775 more rows
```
…
