Week 4 Lab Exercise - KEY
…
Your final exercise for this section is to manipulate the hotels data via dplyr to acheive the following: Create a table that shows, for each month and hotel type, the mean, median, sd, min, and max for the variable lead_time.

hotels %>%
  group_by(arrival_date_month, hotel) %>%
  summarize(mean_leadtime = mean(lead_time),
            median_leadtime = median(lead_time),
            sd_leadtime = sd(lead_time),
            min_leadtime = min(lead_time),
            max_leadtime = max(lead_time))

## `summarise()` has grouped output by 'arrival_date_month'. You can override using the `.groups` argument.

## # A tibble: 24 × 7
## # Groups:   arrival_date_month [12]
##    arrival_date_mo… hotel mean_leadtime median_leadtime sd_leadtime min_leadtime
##    <chr>            <chr>         <dbl>           <dbl>       <dbl>        <dbl>
##  1 April            City…         111.             93          77.7            4
##  2 April            Reso…          82.4            65          72.5            0
##  3 August           City…         116.             96.5       104.             0
##  4 August           Reso…         105.             89.5        90.1            0
##  5 December         City…          92              41         104.             1
##  6 December         Reso…          58.4            45          52.5            0
##  7 February         City…          47.1            37          44.1            0
##  8 February         Reso…          54.5            24          63.1            0
##  9 January          City…          50.8            27          62.2            3
## 10 January          Reso…          35.1             6          47.2            0
## # … with 14 more rows, and 1 more variable: max_leadtime <dbl>
…
