R Lab 3 Exercise - KEY
…
Your final exercise for this section is to manipulate the hotels data via dplyr to acheive the following: Create a table that shows, for each month and hotel type, the mean, median, sd, min, and max for the variable lead_time.

hotels %>%
  group_by(arrival_date_month, hotel) %>%
  summarize(mean_leadtime = mean(lead_time),
            median_leadtime = median(lead_time),
            sd_leadtime = sd(lead_time),
            min_leadtime = min(lead_time),
            max_leadtime = max(lead_time))

## `summarise()` has grouped output by 'arrival_date_month'. You can override using the `.groups` argument.

## # A tibble: 24 × 7
## # Groups:   arrival_date_month [12]
##    arrival_date_mo… hotel mean_leadtime median_leadtime sd_leadtime min_leadtime
##    <chr>            <chr>         <dbl>           <dbl>       <dbl>        <dbl>
##  1 April            City…          95.4            93          80.0            0
##  2 April            Reso…          94.6            78.5        68.9            0
##  3 August           City…         133.            126         122.             0
##  4 August           Reso…          84.2            72          67.5            0
##  5 December         City…          74.1            36          89.5            0
##  6 December         Reso…          47.5            23          60.9            0
##  7 February         City…          53.4            28          75.4            0
##  8 February         Reso…          54.2            11         135.             0
##  9 January          City…          50.9            28          77.7            0
## 10 January          Reso…          39.9            30          41.8            0
## # … with 14 more rows, and 1 more variable: max_leadtime <dbl>
…
Exercise 2.

Are people traveling on a whim? Let’s see…

Fill in the blanks for filtering for hotel bookings where the guest is not from the US (country code "USA") and the lead_time is less than 1 day.

hotels %>%
  filter(
    country != "USA", 
    lead_time < 1
  )

## # A tibble: 58 × 32
##    hotel        is_canceled lead_time arrival_date_year arrival_date_month
##    <chr>              <dbl>     <dbl>             <dbl> <chr>             
##  1 Resort Hotel           0         0              2015 December          
##  2 City Hotel             0         0              2015 August            
##  3 City Hotel             0         0              2017 February          
##  4 Resort Hotel           0         0              2016 November          
##  5 Resort Hotel           0         0              2017 August            
##  6 Resort Hotel           0         0              2016 July              
##  7 City Hotel             0         0              2016 March             
##  8 Resort Hotel           0         0              2017 August            
##  9 Resort Hotel           0         0              2017 March             
## 10 City Hotel             0         0              2016 September         
## # … with 48 more rows, and 27 more variables: arrival_date_week_number <dbl>,
## #   arrival_date_day_of_month <dbl>, stays_in_weekend_nights <dbl>,
## #   stays_in_week_nights <dbl>, adults <dbl>, children <dbl>, babies <dbl>,
## #   meal <chr>, country <chr>, market_segment <chr>,
## #   distribution_channel <chr>, is_repeated_guest <dbl>,
## #   previous_cancellations <dbl>, previous_bookings_not_canceled <dbl>,
## #   reserved_room_type <chr>, assigned_room_type <chr>, …
…
How many bookings involve at least 1 child or baby?

In the following chunk, replace

[AT LEAST] with the logical operator for “at least” (in two places)

[OR] with the logical operator for “or”

hotels %>%
  filter(
    children >= 1 | babies >= 1
  )

## # A tibble: 84 × 32
##    hotel        is_canceled lead_time arrival_date_year arrival_date_month
##    <chr>              <dbl>     <dbl>             <dbl> <chr>             
##  1 City Hotel             0        94              2016 July              
##  2 Resort Hotel           0        71              2017 April             
##  3 City Hotel             1        91              2016 May               
##  4 Resort Hotel           0       136              2015 July              
##  5 City Hotel             1       303              2017 April             
##  6 City Hotel             1       341              2017 July              
##  7 City Hotel             0        11              2017 February          
##  8 Resort Hotel           1        94              2017 June              
##  9 Resort Hotel           1        34              2015 October           
## 10 City Hotel             0       110              2016 July              
## # … with 74 more rows, and 27 more variables: arrival_date_week_number <dbl>,
## #   arrival_date_day_of_month <dbl>, stays_in_weekend_nights <dbl>,
## #   stays_in_week_nights <dbl>, adults <dbl>, children <dbl>, babies <dbl>,
## #   meal <chr>, country <chr>, market_segment <chr>,
## #   distribution_channel <chr>, is_repeated_guest <dbl>,
## #   previous_cancellations <dbl>, previous_bookings_not_canceled <dbl>,
## #   reserved_room_type <chr>, assigned_room_type <chr>, …
…
