Week 2 Application Exercise - KEY
…
Exercise 2.

Are people traveling on a whim? Let’s see…

Fill in the blanks for filtering for hotel bookings where the guest is not from the US (country code "USA") and the lead_time is less than 1 day.

Note: You will need to set eval=TRUE when you have an answer you want to try out.

hotels %>%
  filter(
    country != "USA", 
    lead_time < 1
    )

## # A tibble: 6,174 x 32
##    hotel        is_canceled lead_time arrival_date_year arrival_date_month
##    <chr>              <dbl>     <dbl>             <dbl> <chr>             
##  1 Resort Hotel           0         0              2015 July              
##  2 Resort Hotel           0         0              2015 July              
##  3 Resort Hotel           0         0              2015 July              
##  4 Resort Hotel           0         0              2015 July              
##  5 Resort Hotel           0         0              2015 July              
##  6 Resort Hotel           0         0              2015 July              
##  7 Resort Hotel           0         0              2015 July              
##  8 Resort Hotel           0         0              2015 July              
##  9 Resort Hotel           0         0              2015 July              
## 10 Resort Hotel           0         0              2015 July              
## # … with 6,164 more rows, and 27 more variables:
## #   arrival_date_week_number <dbl>, arrival_date_day_of_month <dbl>,
## #   stays_in_weekend_nights <dbl>, stays_in_week_nights <dbl>, adults <dbl>,
## #   children <dbl>, babies <dbl>, meal <chr>, country <chr>,
## #   market_segment <chr>, distribution_channel <chr>, is_repeated_guest <dbl>,
## #   previous_cancellations <dbl>, previous_bookings_not_canceled <dbl>,
## #   reserved_room_type <chr>, assigned_room_type <chr>, booking_changes <dbl>,
## #   deposit_type <chr>, agent <chr>, company <chr>, days_in_waiting_list <dbl>,
## #   customer_type <chr>, adr <dbl>, required_car_parking_spaces <dbl>,
…
In the following chunk, replace

[AT LEAST] with the logical operator for “at least” (in two places)

[OR] with the logical operator for “or”

Note: You will need to set eval=TRUE when you have an answer you want to try out.

hotels %>%
  filter(
    children >= 1 | babies >= 1
    )

## # A tibble: 9,332 x 32
##    hotel        is_canceled lead_time arrival_date_year arrival_date_month
##    <chr>              <dbl>     <dbl>             <dbl> <chr>             
##  1 Resort Hotel           0        18              2015 July              
##  2 Resort Hotel           1        47              2015 July              
##  3 Resort Hotel           0         1              2015 July              
##  4 Resort Hotel           0        10              2015 July              
##  5 Resort Hotel           1        79              2015 July              
##  6 Resort Hotel           0       101              2015 July              
##  7 Resort Hotel           0        92              2015 July              
##  8 Resort Hotel           1        26              2015 July              
##  9 Resort Hotel           0       102              2015 July              
## 10 Resort Hotel           0        78              2015 July              
## # … with 9,322 more rows, and 27 more variables:
## #   arrival_date_week_number <dbl>, arrival_date_day_of_month <dbl>,
## #   stays_in_weekend_nights <dbl>, stays_in_week_nights <dbl>, adults <dbl>,
## #   children <dbl>, babies <dbl>, meal <chr>, country <chr>,
## #   market_segment <chr>, distribution_channel <chr>, is_repeated_guest <dbl>,
## #   previous_cancellations <dbl>, previous_bookings_not_canceled <dbl>,
## #   reserved_room_type <chr>, assigned_room_type <chr>, booking_changes <dbl>,
## #   deposit_type <chr>, agent <chr>, company <chr>, days_in_waiting_list <dbl>,
## #   customer_type <chr>, adr <dbl>, required_car_parking_spaces <dbl>,
…
